
---------------------------------------
New Wallet 1
Successfully created new keypair.
Address: 0xAcdCb44D6B9fE01e437f304B555137E913A1bAD6
Private Key: 0x249bb357de9c19527da682f9a7a42b0040d861c3c5ca26d35e54ae447dc7fcc4
---------------------------------------

---------------------------------------
New Wallet 2
Successfully created new keypair.
Address: 0x87a49Fd42B86821C1c166A0aE525F58c5991F0B3
Private Key: 0xa000b06cf008070f9102b9573ee3b2005db00d18b7ce76b91d38249520c913fc
---------------------------------------

---------------------------------------
New Wallet 3
Successfully created new keypair.
Address: 0x9bD93c28afDFed1a18Fd9AA81A5fc7AcfA8e598D
Private Key: 0xccce643b45447694f5774587214836e0767330dbedba169d19c838e8ef923342
---------------------------------------

---------------------------------------
New Wallet 4
Successfully created new keypair.
Address: 0x6dA18f599d226f923d84Cc68E576fA373b0C152B
Private Key: 0x70ddaab5c81311742b50d243b1b412546dfae021d4a9724d89728f43cacd1a20
---------------------------------------
